<svg xmlns="http://www.w3.org/2000/svg" width="16.967" height="20.227" viewBox="0 0 16.967 20.227">
  <g id="down-arrow" transform="translate(-682.459 -735.439)">
    <path id="Path_653" data-name="Path 653" d="M-8283.878-21958.561v17.5" transform="translate(8975.026 22695)" fill="none" stroke="#fff" stroke-linecap="round" stroke-width="2"/>
    <path id="Path_654" data-name="Path 654" d="M-8295.128-21942.566l7.3,6.842,6.842-6.842" transform="translate(8979 22689.998)" fill="none" stroke="#fff" stroke-linecap="round" stroke-width="2"/>
  </g>
</svg>
