<svg xmlns="http://www.w3.org/2000/svg" width="30" height="23.402" viewBox="0 0 30 23.402">
  <g id="otherways_to_give_icon" data-name="otherways to give icon" transform="translate(-135 -147.298)">
    <g id="bank_1_" data-name="bank (1)" transform="translate(138 147.297)">
      <path id="Path_26012" data-name="Path 26012" d="M22.764,447H.731a.932.932,0,0,0-.731.823v1.463a.686.686,0,0,0,.686.686H22.718a.686.686,0,0,0,.686-.686v-1.463A.958.958,0,0,0,22.764,447Z" transform="translate(0 -426.567)" fill="#5d2468"/>
      <path id="Path_26013" data-name="Path 26013" d="M22.981,4.624,11.965.053a.686.686,0,0,0-.526,0L.423,4.624A.686.686,0,0,0,0,5.257V6.629a.686.686,0,0,0,.686.686H22.718a.686.686,0,0,0,.686-.686V5.257a.686.686,0,0,0-.423-.633Zm-7.165.633H7.588a.686.686,0,0,1,0-1.371h8.228a.686.686,0,0,1,0,1.371Z" fill="#5d2468"/>
      <path id="Path_26014" data-name="Path 26014" d="M28.5,375.686v1.371h5.257v-1.371a.686.686,0,0,0-.686-.686H29.186A.686.686,0,0,0,28.5,375.686Z" transform="translate(-27.197 -357.858)" fill="#5d2468"/>
      <path id="Path_26019" data-name="Path 26019" d="M28.5,375.686v1.371h5.257v-1.371a.686.686,0,0,0-.686-.686H29.186A.686.686,0,0,0,28.5,375.686Z" transform="translate(-19.427 -357.858)" fill="#5d2468"/>
      <path id="Path_26015" data-name="Path 26015" d="M48.5,190h3.428v7.085H48.5Z" transform="translate(-46.283 -181.314)" fill="#5d2468"/>
      <path id="Path_26018" data-name="Path 26018" d="M48.5,190h3.428v7.085H48.5Z" transform="translate(-38.513 -181.314)" fill="#5d2468"/>
      <path id="Path_26016" data-name="Path 26016" d="M388.5,190h3.428v7.085H388.5Z" transform="translate(-370.742 -181.314)" fill="#5d2468"/>
      <path id="Path_26017" data-name="Path 26017" d="M368.5,375.686v1.371h5.257v-1.371a.686.686,0,0,0-.686-.686h-3.885A.686.686,0,0,0,368.5,375.686Z" transform="translate(-351.656 -357.858)" fill="#5d2468"/>
    </g>
    <rect id="Rectangle_599" data-name="Rectangle 599" width="30" height="11" rx="1" transform="translate(135 156)" fill="#5d2468"/>
    <text id="BANK" transform="translate(137 165)" fill="#fff" font-size="9" font-family="OpenSans-Bold, Open Sans" font-weight="700"><tspan x="0" y="0">BANK</tspan></text>
  </g>
</svg>
